…
## Totalt antall arbeidstakere i hele landet per år:

```{r}
fnr <- c(
  "30", "01", "02", "06", "03", "34", "04", "05", "38", "07", "08", "42"
, "09", "10", "11", "46", "12", "14", "15", "50", "16", "17", "18", "54", "19", "20"
)
```

```{# A tibble: 22 x 2}
aar arbtak_HL
<chr> <int>
1 2000 2262000
2 2001 2275000
3 2002 2267000
4 2003 2260000
5 2004 2274000
# ... with 17 more rows
```
…
